C:\Users\asus\OneDrive\เดสก์ท็อป\Softdev\UserManagement\UserManagement\src\main\java\com\mycompany\usermanagement\UserManagement.java
C:\Users\asus\OneDrive\เดสก์ท็อป\Softdev\UserManagement\UserManagement\src\main\java\com\mycompany\usermanagement\User.java
C:\Users\asus\OneDrive\เดสก์ท็อป\Softdev\UserManagement\UserManagement\src\main\java\com\mycompany\usermanagement\Userservice.java
C:\Users\asus\OneDrive\เดสก์ท็อป\Softdev\UserManagement\UserManagement\src\main\java\com\mycompany\usermanagement\UserFrame.java
